<?xml version="1.0" encoding="UTF-8" standalone="no"?>
<svg
   height="24px"
   viewBox="0 0 24 24"
   width="24px"
   fill="#000000"
   version="1.1"
   id="svg6"
   sodipodi:docname="delete.svg"
   inkscape:version="1.1 (c4e8f9ed74, 2021-05-24)"
   xmlns:inkscape="http://www.inkscape.org/namespaces/inkscape"
   xmlns:sodipodi="http://sodipodi.sourceforge.net/DTD/sodipodi-0.dtd"
   xmlns="http://www.w3.org/2000/svg"
   xmlns:svg="http://www.w3.org/2000/svg">
  <defs
     id="defs10" />
  <sodipodi:namedview
     id="namedview8"
     pagecolor="#ffffff"
     bordercolor="#666666"
     borderopacity="1.0"
     inkscape:pageshadow="2"
     inkscape:pageopacity="0.0"
     inkscape:pagecheckerboard="0"
     showgrid="false"
     inkscape:zoom="18.09375"
     inkscape:cx="11.468048"
     inkscape:cy="19.785838"
     inkscape:window-width="1920"
     inkscape:window-height="1006"
     inkscape:window-x="0"
     inkscape:window-y="0"
     inkscape:window-maximized="1"
     inkscape:current-layer="svg6" />
  <path
     d="M0 0h24v24H0z"
     fill="none"
     id="path2" />
  <path
     d="M6 19c0 1.1.9 2 2 2h8c1.1 0 2-.9 2-2V7H6v12zM19 4h-3.5l-1-1h-5l-1 1H5v2h14V4z"
     id="path4" />
  <path
     style="fill:#ffffff;stroke-width:0.0363636"
     d="M 7.7636364,20.962377 C 7.1322073,20.883564 6.5605222,20.487373 6.2644603,19.923414 6.0032681,19.425876 6.019316,19.871473 6.0187193,13.1 L 6.0181818,7 H 12 17.981818 l -5.38e-4,6.1 c -5.96e-4,6.77106 0.01544,6.32554 -0.245595,6.823523 -0.241316,0.460367 -0.670446,0.812068 -1.208413,0.990375 -0.188413,0.06245 -0.441212,0.06663 -4.363636,0.07214 -2.2900004,0.0032 -4.2700004,-0.0074 -4.4000004,-0.02366 z"
     id="path49" />
  <path
     style="fill:#ffffff;stroke-width:0.0363636"
     d="M 5,5 V 4.0181818 H 6.7550326 8.5100652 L 9.0181818,3.5090909 9.5262985,3 H 12 14.473701 l 0.508117,0.5090909 0.508117,0.5090909 H 17.244967 19 V 5 5.9818182 H 12 5 Z"
     id="path88" />
</svg>
